[{"model":"Usuario.usuario","pk":2,"fields":{"password":"Error: Sorry, \"X+\" is too vague, try setting a range: \"X{1,3}\"","last_login":"2018-06-17T08:15:29Z","is_superuser":false,"username":"lcullip0","first_name":"Lanie","last_name":"Cullip","email":"lcullip0@archive.org","is_staff":false,"is_active":true,"date_joined":"2018-04-30T23:12:13Z","cedula":37248,"edad":39,"sexo":"M","telefono":800560,"cargo":"Gerente","imagen":"","fecha_fin_membresia":"1990-02-10"}},
{"model":"Usuario.usuario","pk":3,"fields":{"password":"Error: Sorry, \"X+\" is too vague, try setting a range: \"X{1,3}\"","last_login":"2018-02-10T05:44:36Z","is_superuser":false,"username":"arittmeier1","first_name":"Adolphus","last_name":"Rittmeier","email":"arittmeier1@walmart.com","is_staff":false,"is_active":true,"date_joined":"2017-08-19T08:53:59Z","cedula":48649,"edad":41,"sexo":"M","telefono":899833,"cargo":"Operador","imagen":"","fecha_fin_membresia":"1990-02-10"}},
{"model":"Usuario.usuario","pk":4,"fields":{"password":"Error: Sorry, \"X+\" is too vague, try setting a range: \"X{1,3}\"","last_login":"2017-12-05T09:35:04Z","is_superuser":false,"username":"rsivell2","first_name":"Robinson","last_name":"Sivell","email":"rsivell2@psu.edu","is_staff":false,"is_active":true,"date_joined":"2018-03-23T14:28:02Z","cedula":41902,"edad":40,"sexo":"M","telefono":894377,"cargo":"Operador","imagen":"","fecha_fin_membresia":"1990-02-10"}},
{"model":"Usuario.usuario","pk":5,"fields":{"password":"Error: Sorry, \"X+\" is too vague, try setting a range: \"X{1,3}\"","last_login":"2018-05-10T23:29:08Z","is_superuser":false,"username":"dbearfoot3","first_name":"Dar","last_name":"Bearfoot","email":"dbearfoot3@answers.com","is_staff":false,"is_active":true,"date_joined":"2017-12-04T10:15:19Z","cedula":35597,"edad":24,"sexo":"F","telefono":777026,"cargo":"Operador","imagen":"","fecha_fin_membresia":"1990-02-10"}},
{"model":"Usuario.usuario","pk":6,"fields":{"password":"Error: Sorry, \"X+\" is too vague, try setting a range: \"X{1,3}\"","last_login":"2017-12-23T19:22:26Z","is_superuser":false,"username":"iwintour4","first_name":"Ignace","last_name":"Wintour","email":"iwintour4@dagondesign.com","is_staff":false,"is_active":true,"date_joined":"2018-03-15T06:43:42Z","cedula":35014,"edad":35,"sexo":"F","telefono":759182,"cargo":"Operador","imagen":"","fecha_fin_membresia":"1990-02-10"}},
{"model":"Usuario.usuario","pk":7,"fields":{"password":"Error: Sorry, \"X+\" is too vague, try setting a range: \"X{1,3}\"","last_login":"2017-10-08T06:55:01Z","is_superuser":false,"username":"lgot5","first_name":"Lesley","last_name":"Got","email":"lgot5@shinystat.com","is_staff":false,"is_active":true,"date_joined":"2017-12-02T08:51:24Z","cedula":33790,"edad":22,"sexo":"F","telefono":767666,"cargo":"Participante","imagen":"","fecha_fin_membresia":"1990-02-10"}},
{"model":"Usuario.usuario","pk":8,"fields":{"password":"Error: Sorry, \"X+\" is too vague, try setting a range: \"X{1,3}\"","last_login":"2017-07-27T19:59:55Z","is_superuser":false,"username":"acrumly6","first_name":"Aubry","last_name":"Crumly","email":"acrumly6@tuttocitta.it","is_staff":false,"is_active":true,"date_joined":"2017-08-17T09:27:47Z","cedula":34196,"edad":49,"sexo":"F","telefono":856687,"cargo":"Operador","imagen":"","fecha_fin_membresia":"1990-02-10"}},
{"model":"Usuario.usuario","pk":9,"fields":{"password":"Error: Sorry, \"X+\" is too vague, try setting a range: \"X{1,3}\"","last_login":"2017-07-30T22:31:20Z","is_superuser":false,"username":"sburbridge7","first_name":"Shandie","last_name":"Burbridge","email":"sburbridge7@linkedin.com","is_staff":false,"is_active":true,"date_joined":"2017-09-18T06:33:38Z","cedula":40156,"edad":27,"sexo":"M","telefono":810765,"cargo":"Operador","imagen":"","fecha_fin_membresia":"1990-02-10"}},
{"model":"Usuario.usuario","pk":10,"fields":{"password":"Error: Sorry, \"X+\" is too vague, try setting a range: \"X{1,3}\"","last_login":"2017-11-06T07:10:49Z","is_superuser":false,"username":"agillivrie8","first_name":"Amby","last_name":"Gillivrie","email":"agillivrie8@surveymonkey.com","is_staff":false,"is_active":true,"date_joined":"2018-01-22T21:13:51Z","cedula":43703,"edad":35,"sexo":"M","telefono":872321,"cargo":"Operador","imagen":"","fecha_fin_membresia":"1990-02-10"}},
{"model":"Usuario.usuario","pk":11,"fields":{"password":"Error: Sorry, \"X+\" is too vague, try setting a range: \"X{1,3}\"","last_login":"2017-07-21T22:33:19Z","is_superuser":false,"username":"aprobin9","first_name":"Allison","last_name":"Probin","email":"aprobin9@live.com","is_staff":false,"is_active":true,"date_joined":"2017-12-22T10:02:19Z","cedula":30811,"edad":37,"sexo":"M","telefono":878033,"cargo":"Operador","imagen":"","fecha_fin_membresia":"1990-02-10"}}]