{
	"FILENAME": "secrets.json",
	"SECRET_KEY": "9@c6&k9fu_97g+p(65cjn)b+o12_eu9x9cn(bvib$46%)y$kn6",
	"DATABASES_NAME": "saas2",
	"DATABASES_USER": "postgres",
	"DATABASES_PASSWORD": "postgres",
	"DATABASES_HOST": "localhost",
	"DATABASES_PORT": "",
	"EMAIL_HOST_USER": "admin@saas.es",
	"EMAIL_HOST_PASSWORD": "",
	"EMAIL_HOST": "localhost",
	"EMAIL_PORT": 1025,
	"EMAIL_USE_TLS" : false,
	"EMAIL_TIMEOUT" : 3,
	"GOOGLE_MAPS_KEY": "AIzaSyBGhOZEuJ1yH4Vm11lA1dtYnPif-sUf708"
}
